<?xml version="1.0" encoding="UTF-8"?>
<svg width="81px" height="63px" viewBox="0 0 81 63" version="1.1" xmlns="http://www.w3.org/2000/svg" xmlns:xlink="http://www.w3.org/1999/xlink">
    <!-- Generator: Sketch 48.2 (47327) - http://www.bohemiancoding.com/sketch -->
    <title>Page 1</title>
    <desc>Created with Sketch.</desc>
    <defs>
        <polygon id="path-1" points="7.46 4.7588 7.46 0.7328 0.0204 0.7328 0.0204 4.7588 7.46 4.7588"></polygon>
    </defs>
    <g id="Logo-black" stroke="none" stroke-width="1" fill="none" fill-rule="evenodd" transform="translate(0.000000, -1.000000)">
        <g id="Page-1">
            <g id="Group-3" transform="translate(73.000000, 0.267600)">
                <mask id="mask-2" fill="white">
                    <use xlink:href="#path-1"></use>
                </mask>
                <g id="Clip-2"></g>
                <path d="M1.7734,4.7588 L1.2494,4.7588 L1.2494,1.1738 L0.0204,1.1738 L0.0204,0.7328 L3.0084,0.7328 L3.0084,1.1738 L1.7734,1.1738 L1.7734,4.7588 Z M6.9454,4.7588 L6.8494,2.9898 C6.8184,2.4288 6.7834,1.7478 6.7834,1.2518 L6.7714,1.2518 C6.6284,1.7178 6.4654,2.2258 6.2624,2.7808 L5.5504,4.7348 L5.1544,4.7348 L4.4974,2.8178 C4.3034,2.2428 4.1464,1.7298 4.0354,1.2518 L4.0214,1.2518 C4.0094,1.7538 3.9794,2.4228 3.9424,3.0318 L3.8364,4.7588 L3.3384,4.7588 L3.6214,0.7328 L4.2854,0.7328 L4.9734,2.6798 C5.1424,3.1758 5.2744,3.6168 5.3804,4.0358 L5.3924,4.0358 C5.5024,3.6298 5.6454,3.1878 5.8254,2.6798 L6.5454,0.7328 L7.2094,0.7328 L7.4604,4.7588 L6.9454,4.7588 Z" id="Fill-1" fill="#252831" mask="url(#mask-2)"></path>
            </g>
            <path d="M54.1035,1 L25.3085,1 L21.4745,3.935 L23.5015,3.935 L49.1605,3.935 L53.5865,3.935 C66.8415,3.935 75.7245,14.719 73.3865,27.975 C71.0495,41.23 58.3635,52.014 45.1095,52.014 L32.7295,52.014 L32.7305,52.002 L29.7955,52.002 L29.2755,54.949 L44.5915,54.949 C59.4655,54.949 73.6995,42.848 76.3215,27.975 C78.9435,13.101 68.9785,1 54.1035,1" id="Fill-4" fill="#252831"></path>
            <polygon id="Fill-6" fill="#252831" points="32.7363 52.0083 30.7753 63.2673 27.8293 63.2673 29.7893 52.0083"></polygon>
            <path d="M52.6093,6.5274 L18.0873,6.5274 L14.2543,9.4624 L22.9603,9.4624 L25.7173,9.4624 L52.0923,9.4624 C62.3013,9.4624 69.1403,17.7664 67.3403,27.9744 C65.5433,38.1814 55.7723,46.4874 45.5643,46.4874 L34.4343,46.4734 L25.4543,46.4734 L24.9333,49.4214 L45.0473,49.4214 C56.8753,49.4214 68.1913,39.7994 70.2753,27.9744 C72.3603,16.1494 64.4363,6.5274 52.6093,6.5274" id="Fill-8" fill="#252831"></path>
            <polygon id="Fill-10" fill="#252831" points="28.4013 46.4737 25.6483 61.7847 22.7033 61.7847 25.4543 46.4737"></polygon>
            <path d="M51.0986,12.127 L10.7726,12.127 L6.9496,15.053 L6.9466,15.061 L15.5246,15.061 L18.0876,15.061 L50.5786,15.061 C57.7016,15.061 62.4726,20.855 61.2176,27.975 C59.9596,35.095 53.1486,40.887 46.0276,40.887 L30.4176,40.887 L30.4176,40.879 L20.8416,40.879 L20.3236,43.822 L45.5086,43.822 C54.2486,43.822 62.6106,36.712 64.1506,27.975 C65.6926,19.236 59.8376,12.127 51.0986,12.127" id="Fill-12" fill="#252831"></path>
            <polygon id="Fill-14" fill="#252831" points="19.7998 63.2676 23.7868 40.8796 20.8418 40.8796 16.8548 63.2676"></polygon>
            <polygon id="Fill-16" fill="#252831" points="14.3076 63.2676 19.2006 35.5466 16.2546 35.5466 11.3626 63.2676"></polygon>
            <path d="M49.666,17.4365 L3.835,17.4365 L0,20.3715 L20.395,20.3715 L21.088,20.3715 L49.146,20.3715 C53.34,20.3715 56.148,23.7815 55.409,27.9745 C54.671,32.1665 50.658,35.5765 46.466,35.5765 L37.162,35.5765 L37.168,35.5465 L16.255,35.5465 L15.731,38.5115 L45.947,38.5115 C51.759,38.5115 57.318,33.7845 58.343,27.9745 C59.368,22.1645 55.475,17.4365 49.666,17.4365" id="Fill-18" fill="#252831"></path>
            <path d="M25.3789,63.2676 L27.6619,50.4716 C27.5909,50.5026 27.5209,50.5376 27.4479,50.5676 C26.4699,50.9786 25.4829,51.3536 24.4979,51.7356 L22.4409,63.2676 L25.3789,63.2676 Z" id="Fill-20" fill="#252831"></path>
        </g>
    </g>
</svg>